practical1_task2
…
Missing values processing

# Check for missing values and give the proportion of missing values by column
missing_values <- data %>%
  summarise(across(everything(), ~ sum(is.na(.)) / n())) %>%
  gather() %>%
  arrange(desc(value))

# Print missing values
print(missing_values)

# A tibble: 21 × 2
   key                           value
   <chr>                         <dbl>
 1 inventory_turnover          0.306  
 2 interest_coverage           0.269  
 3 book_value                  0.0552 
 4 ebitda_margin               0.0519 
 5 free_cash_flow_to_sales     0.0517 
 6 net_profit_margin           0.0493 
 7 roic                        0.00997
 8 ebitda                      0.00589
 9 leverage                    0.00571
10 operating_cash_flow_to_debt 0.00567
# ℹ 11 more rows
…
